<?xml version="1.0" encoding="UTF-8" standalone="no"?>
<!-- Created with Inkscape (http://www.inkscape.org/) -->

<svg
   width="258.41602mm"
   height="143.00888mm"
   viewBox="0 0 258.41602 143.00888"
   version="1.1"
   id="svg2360"
   inkscape:version="1.1.1 (1:1.1+202109281949+c3084ef5ed)"
   sodipodi:docname="demoschild_fahrad.svg"
   xmlns:inkscape="http://www.inkscape.org/namespaces/inkscape"
   xmlns:sodipodi="http://sodipodi.sourceforge.net/DTD/sodipodi-0.dtd"
   xmlns="http://www.w3.org/2000/svg"
   xmlns:svg="http://www.w3.org/2000/svg">
  <sodipodi:namedview
     id="namedview2362"
     pagecolor="#ffffff"
     bordercolor="#666666"
     borderopacity="1.0"
     inkscape:pageshadow="2"
     inkscape:pageopacity="0.0"
     inkscape:pagecheckerboard="0"
     inkscape:document-units="mm"
     showgrid="false"
     fit-margin-top="0"
     fit-margin-left="0"
     fit-margin-right="0"
     fit-margin-bottom="0"
     inkscape:zoom="0.75187991"
     inkscape:cx="425.59988"
     inkscape:cy="205.48494"
     inkscape:window-width="1848"
     inkscape:window-height="1016"
     inkscape:window-x="72"
     inkscape:window-y="27"
     inkscape:window-maximized="1"
     inkscape:current-layer="g4802" />
  <defs
     id="defs2357">
    <marker
       id="DistanceX"
       orient="auto"
       refX="0"
       refY="0"
       style="overflow:visible">
      <path
         d="M 3,-3 -3,3 M 0,-5 V 5"
         style="stroke:#000000;stroke-width:0.5"
         id="path2439" />
    </marker>
    <pattern
       id="Hatch"
       patternUnits="userSpaceOnUse"
       width="8"
       height="8"
       x="0"
       y="0">
      <path
         d="M8 4 l-4,4"
         stroke="#000000"
         stroke-width="0.25"
         linecap="square"
         id="path2442" />
      <path
         d="M6 2 l-4,4"
         stroke="#000000"
         stroke-width="0.25"
         linecap="square"
         id="path2444" />
      <path
         d="M4 0 l-4,4"
         stroke="#000000"
         stroke-width="0.25"
         linecap="square"
         id="path2446" />
    </pattern>
    <symbol
       id="*Model_Space" />
    <symbol
       id="*Paper_Space" />
    <symbol
       id="*Paper_Space0" />
  </defs>
  <g
     inkscape:label="Layer 1"
     inkscape:groupmode="layer"
     id="layer1"
     transform="translate(23.476851,-73.122638)">
    <g
       id="g2647"
       transform="matrix(0.26458333,0,0,0.26458333,299.64221,-118.79923)"
       style="fill:none;stroke:#000000;stroke-opacity:1">
      <g
         inkscape:label="0"
         id="g2454"
         style="fill:none;stroke:#000000;stroke-opacity:1" />
      <g
         inkscape:label="SECTION_CUTTING_LINE"
         id="g2456"
         style="fill:none;stroke:#000000;stroke-opacity:1" />
      <g
         inkscape:label="DETAIL_VIEW_BORDER"
         id="g2458"
         style="fill:none;stroke:#000000;stroke-opacity:1" />
      <g
         inkscape:label="DETAIL_VIEW_PARENT_BORDER"
         id="g2460"
         style="fill:none;stroke:#000000;stroke-opacity:1" />
      <g
         inkscape:label="TEXT"
         id="g2462"
         style="fill:none;stroke:#000000;stroke-opacity:1" />
      <g
         inkscape:label="SKETCHED_GEOMETRY"
         id="g2464"
         style="fill:none;stroke:#000000;stroke-opacity:1" />
      <g
         inkscape:label="VIRTUAL_SHARPS"
         id="g2466"
         style="fill:none;stroke:#000000;stroke-opacity:1" />
      <g
         inkscape:label="CENTERLINES"
         id="g2468"
         style="fill:none;stroke:#000000;stroke-opacity:1" />
      <g
         inkscape:label="CENTERMARKS"
         id="g2470"
         style="fill:none;stroke:#000000;stroke-opacity:1" />
      <g
         inkscape:label="TABLES"
         id="g2472"
         style="fill:none;stroke:#000000;stroke-opacity:1" />
      <g
         inkscape:label="IMAGES"
         id="g2474"
         style="fill:none;stroke:#000000;stroke-opacity:1" />
      <g
         inkscape:label="ANNOTATION_LINES"
         id="g2476"
         style="fill:none;stroke:#000000;stroke-opacity:1" />
      <g
         inkscape:label="ANNOTATION_TEXT"
         id="g2478"
         style="fill:none;stroke:#000000;stroke-opacity:1" />
      <g
         inkscape:label="SIDE_THREAD_SYMBOLS"
         id="g2480"
         style="fill:none;stroke:#000000;stroke-opacity:1" />
      <g
         inkscape:label="SIDE_THREAD_SYMBOLS_HIDDEN"
         id="g2482"
         style="fill:none;stroke:#000000;stroke-opacity:1" />
      <g
         inkscape:label="SURFACE_THREAD_SYMBOLS"
         id="g2484"
         style="fill:none;stroke:#000000;stroke-opacity:1" />
      <g
         inkscape:label="SURFACE_THREAD_SYMBOLS_ON_AXIS"
         id="g2486"
         style="fill:none;stroke:#000000;stroke-opacity:1" />
      <g
         inkscape:label="SURFACE_THREAD_SYMBOLS_HIDDEN"
         id="g2488"
         style="fill:none;stroke:#000000;stroke-opacity:1" />
      <g
         inkscape:label="BLIND_THREAD_SYMBOLS"
         id="g2490"
         style="fill:none;stroke:#000000;stroke-opacity:1" />
      <g
         inkscape:label="BLIND_THREAD_SYMBOLS_HIDDEN"
         id="g2492"
         style="fill:none;stroke:#000000;stroke-opacity:1" />
      <g
         inkscape:label="EXPLODE_LINES"
         id="g2494"
         style="fill:none;stroke:#000000;stroke-opacity:1" />
      <g
         inkscape:label="HIDDEN_EXPLODE_LINES"
         id="g2496"
         style="fill:none;stroke:#000000;stroke-opacity:1" />
      <g
         inkscape:label="BREAK_LINES"
         id="g2498"
         style="fill:none;stroke:#000000;stroke-opacity:1" />
      <g
         inkscape:label="SHEETMETAL_BEND_LINES_UP"
         id="g2500"
         style="fill:none;stroke:#000000;stroke-opacity:1" />
      <g
         inkscape:label="SHEETMETAL_BEND_LINES_DOWN"
         id="g2502"
         style="fill:none;stroke:#000000;stroke-opacity:1" />
      <g
         inkscape:label="SHEETMETAL_BEND_TANGENT_LINES"
         id="g2504"
         style="fill:none;stroke:#000000;stroke-opacity:1" />
      <g
         inkscape:label="SHEETMETAL_CUT_LINES"
         id="g2506"
         style="fill:none;stroke:#000000;stroke-opacity:1" />
      <g
         inkscape:label="REGION_ASSOC_POINTS"
         id="g2508"
         style="fill:none;stroke:#000000;stroke-opacity:1" />
      <g
         inkscape:label="Hidden"
         id="g2510"
         style="fill:none;stroke:#000000;stroke-opacity:1" />
      <g
         inkscape:label="Visible"
         id="g2512"
         style="fill:none;stroke:#000000;stroke-opacity:1" />
      <g
         inkscape:label="ModelSketch_Visible"
         id="g2556"
         style="fill:none;stroke:#000000;stroke-opacity:1">
        <path
           style="fill:none;stroke:#ff0000;stroke-opacity:1"
           d="m -313.648,861.504 -15.402,34.514"
           id="path2514" />
        <path
           style="fill:none;stroke:#ff0000;stroke-opacity:1"
           d="m -324.002,856.883 -15.403,34.514"
           id="path2516" />
        <path
           style="fill:none;stroke:#ff0000;stroke-opacity:1"
           d="m -339.405,891.397 10.355,4.621"
           id="path2518" />
        <path
           style="fill:none;stroke:#ff0000;stroke-opacity:1"
           d="m -324.002,856.883 10.354,4.621"
           id="path2520" />
        <path
           style="fill:none;stroke:#ff0000;stroke-opacity:1"
           d="m -461.615,1193.07 -15.403,34.51"
           id="path2522" />
        <path
           style="fill:none;stroke:#ff0000;stroke-opacity:1"
           d="m -1165.63,1265.38 -55.11,-539.506"
           id="path2524" />
        <path
           style="fill:none;stroke:#ff0000;stroke-opacity:1"
           d="m -1178.89,763.669 11.28,-1.152"
           id="path2526" />
        <path
           style="fill:none;stroke:#ff0000;stroke-opacity:1"
           d="M -452.497,1265.38 H -1165.63"
           id="path2528" />
        <path
           style="fill:none;stroke:#ff0000;stroke-opacity:1"
           d="m -471.97,1188.45 -15.402,34.51"
           id="path2530" />
        <path
           style="fill:none;stroke:#ff0000;stroke-opacity:1"
           d="m -245.047,800.526 -207.45,464.854"
           id="path2532" />
        <path
           style="fill:none;stroke:#ff0000;stroke-opacity:1"
           d="m -487.372,1222.96 10.354,4.62"
           id="path2534" />
        <path
           style="fill:none;stroke:#ff0000;stroke-opacity:1"
           d="m -1220.74,725.874 h 975.693"
           id="path2536" />
        <path
           style="fill:none;stroke:#fe0000;stroke-opacity:1"
           d="m -1124.06,1188.83 3.84,37.6"
           id="path2538" />
        <path
           style="fill:none;stroke:#ff0000;stroke-opacity:1"
           d="m -245.047,725.874 v 74.652"
           id="path2540" />
        <path
           style="fill:none;stroke:#ff0000;stroke-opacity:1"
           d="m -471.97,1188.45 10.355,4.62"
           id="path2542" />
        <path
           style="fill:none;stroke:#ff0000;stroke-opacity:1"
           d="m -1175.05,801.269 11.28,-1.153"
           id="path2544" />
        <path
           style="fill:none;stroke:#ff0000;stroke-opacity:1"
           d="m -1178.89,763.669 3.84,37.6"
           id="path2546" />
        <path
           style="fill:none;stroke:#ff0000;stroke-opacity:1"
           d="m -1167.61,762.517 3.84,37.599"
           id="path2548" />
        <path
           style="fill:none;stroke:#fe0000;stroke-opacity:1"
           d="m -1135.34,1189.98 11.28,-1.15"
           id="path2550" />
        <path
           style="fill:none;stroke:#fe0000;stroke-opacity:1"
           d="m -1131.5,1227.58 11.28,-1.15"
           id="path2552" />
        <path
           style="fill:none;stroke:#ff0000;stroke-opacity:1"
           d="m -1135.34,1189.98 3.84,37.6"
           id="path2554" />
      </g>
      <g
         inkscape:label="ModelSketch_Point"
         id="g2558"
         style="fill:none;stroke:#000000;stroke-opacity:1" />
      <g
         inkscape:label="ModelSketch_Construction"
         id="g2560"
         style="fill:none;stroke:#000000;stroke-opacity:1" />
      <g
         inkscape:label="HIDDEN_BASE_VIEW"
         id="g2562"
         style="fill:none;stroke:#000000;stroke-opacity:1" />
      <g
         inkscape:label="TANGENT_LINES"
         id="g2564"
         style="fill:none;stroke:#000000;stroke-opacity:1" />
      <g
         inkscape:label="TANGENT_HIDDEN"
         id="g2566"
         style="fill:none;stroke:#000000;stroke-opacity:1" />
      <g
         inkscape:label="INVISIBLE_LINES"
         id="g2568"
         style="fill:none;stroke:#000000;stroke-opacity:1" />
      <g
         inkscape:label="VIEW_HATCHES"
         id="g2570"
         style="fill:none;stroke:#000000;stroke-opacity:1" />
      <g
         inkscape:label="SECTION_JOG_LINES"
         id="g2572"
         style="fill:none;stroke:#000000;stroke-opacity:1" />
    </g>
    <g
       id="g4802"
       transform="translate(52.768681,0.03104647)">
      <g
         id="g4882"
         transform="matrix(0.81208466,0,0,0.81208466,9.2129203,28.702833)">
        <path
           style="fill:#000000;stroke-width:0.167583"
           d="m -41.806832,157.27177 c -5.197541,-0.86382 -9.538974,-3.24806 -13.463247,-7.39378 -2.959954,-3.12699 -4.813822,-6.72163 -5.669608,-10.99336 -0.441567,-2.20412 -0.401063,-6.73816 0.08182,-9.15891 1.064483,-5.33638 3.506493,-9.54519 7.487825,-12.90529 3.414046,-2.88133 6.915581,-4.66324 10.809088,-5.50069 1.08654,-0.2337 2.120159,-0.30423 4.357152,-0.29733 2.541669,0.008 3.223178,0.0707 5.111274,0.47149 3.103302,0.65875 3.016386,0.64793 3.218095,0.40068 0.100397,-0.12306 1.425176,-2.44841 2.943951,-5.16744 1.518774,-2.71903 3.127998,-5.54699 3.57605,-6.28435 1.136437,-1.870239 1.125136,-2.485369 -0.106991,-5.823497 l -0.912374,-2.47185 h -4.155206 -4.155205 l 0.04721,-1.96909 0.04722,-1.969096 h 10.138757 10.138756 v 1.927196 1.9272 l -3.86904,0.0838 -3.869042,0.0838 0.852553,2.30256 0.85255,2.302558 20.068034,0.002 c 11.037419,0.001 20.068035,-0.0302 20.068035,-0.0692 0,-0.039 -0.594877,-1.490668 -1.321948,-3.225958 l -1.321946,-3.15508 -6.554443,-0.0438 -6.554442,-0.0438 v -2.092836 -2.09284 h 7.858101 7.858101 l 5.475401,12.774894 c 3.011472,7.026189 5.499667,12.799149 5.529323,12.828809 0.02966,0.0297 0.910948,-0.11838 1.958421,-0.32897 3.9164,-0.78738 8.54582,-0.43234 12.55391,0.96279 4.29643,1.49548 8.20117,4.41381 11.00691,8.22635 1.22622,1.66621 1.6668,2.54977 1.89971,3.80969 0.20961,1.13387 0.0978,1.34738 -0.85477,1.63278 -0.72809,0.21815 -0.77874,0.33623 -0.93564,2.18151 l -0.10896,1.28146 -1.49148,-0.9044 c -0.82032,-0.49742 -1.52055,-0.90439 -1.55607,-0.90439 -0.0355,0 -0.10457,0.20738 -0.15343,0.46085 -0.0489,0.25347 -0.17332,0.89447 -0.27657,1.42445 -0.10325,0.52998 -0.26492,0.9636 -0.35927,0.9636 -0.0944,0 -0.68797,-0.34648 -1.31916,-0.76996 -0.63118,-0.42348 -1.22228,-0.72381 -1.31354,-0.66741 -0.0913,0.0564 -0.24976,0.53486 -0.35221,1.06323 -0.10246,0.52838 -0.25792,1.13295 -0.34548,1.3435 -0.15787,0.37966 -0.16968,0.37574 -1.43065,-0.47515 -0.69931,-0.47189 -1.3045,-0.82495 -1.34487,-0.78458 -0.0404,0.0404 -0.28016,0.68873 -0.53287,1.44082 l -0.45948,1.36743 -1.17122,-0.75506 c -0.64417,-0.41529 -1.2168,-0.75557 -1.27251,-0.75619 -0.0557,-6.7e-4 -0.28195,0.60179 -0.50275,1.33869 -0.2208,0.73691 -0.46367,1.3402 -0.5397,1.34066 -0.076,5.1e-4 -0.65583,-0.33399 -1.28845,-0.74322 l -1.15021,-0.74407 -0.36622,1.12113 c -0.20142,0.61662 -0.4229,1.18337 -0.49218,1.25944 -0.0693,0.0761 -0.67096,-0.13615 -1.33709,-0.47161 -0.66613,-0.33546 -1.23228,-0.58623 -1.25812,-0.55727 -0.0258,0.029 -0.32859,0.61824 -0.6728,1.30952 -0.34421,0.69128 -0.65388,1.28748 -0.68818,1.3249 -0.0343,0.0374 -0.51089,-0.28437 -1.05912,-0.71508 l -0.99677,-0.78311 -0.722745,0.28148 c -0.397511,0.15482 -0.747161,0.29992 -0.777001,0.32245 -0.02984,0.0225 0.06087,0.26359 0.201577,0.53568 0.293377,0.56733 1.030098,0.93049 1.722689,0.84919 0.46945,-0.0551 0.47817,-0.0401 0.62034,1.06657 0.15929,1.23996 0.24869,1.31582 1.32775,1.12651 0.83721,-0.14687 1.01636,0.16267 0.78876,1.36281 -0.0913,0.4812 -0.16592,0.89888 -0.16592,0.92817 0,0.0293 0.50903,0.0756 1.13118,0.10282 l 1.13118,0.0496 -0.0108,0.58654 c -0.006,0.32259 -0.0709,0.86933 -0.14434,1.21497 l -0.13352,0.62844 h 1.35931 c 1.53788,0 1.55944,0.0251 1.02783,1.19667 -0.56191,1.23837 -0.51206,1.31707 0.83424,1.31707 0.64519,0 1.17308,0.0516 1.17308,0.11469 0,0.0631 -0.12363,0.55532 -0.27474,1.09386 -0.1511,0.53853 -0.24537,1.00613 -0.20948,1.03909 0.0359,0.033 0.53845,-0.0175 1.1168,-0.11214 0.57835,-0.0946 1.09723,-0.12639 1.15308,-0.0705 0.0558,0.0558 -0.0214,0.59108 -0.17173,1.18941 -0.1503,0.59833 -0.27327,1.16664 -0.27327,1.26291 0,0.10707 0.52055,0.17504 1.34066,0.17504 0.73737,0 1.34067,0.0287 1.34067,0.0638 0,0.0351 -0.19173,0.5732 -0.42605,1.19574 l -0.42605,1.1319 0.46148,0.66591 c 0.45313,0.65387 0.45553,0.67032 0.13278,0.90994 -0.6273,0.46572 -2.68063,1.36144 -3.76415,1.64203 -1.45555,0.37692 -5.36016,0.52042 -7.45107,0.27382 -5.184255,-0.61141 -9.636788,-2.70216 -13.273183,-6.23262 -3.709501,-3.60143 -5.83027,-7.3249 -6.864243,-12.05168 -0.444928,-2.03396 -0.4457,-7.51499 -0.0013,-9.54543 1.474219,-6.73633 5.603582,-12.28696 11.710857,-15.74154 0.779278,-0.4408 0.935266,-0.59845 0.817355,-0.82604 -0.08015,-0.1547 -1.106244,-2.46823 -2.28022,-5.14117 -1.173976,-2.67294 -2.184666,-4.91456 -2.245976,-4.98137 -0.06131,-0.0668 -0.788311,0.61696 -1.615553,1.51951 -1.758825,1.91892 -4.379341,4.7463 -17.089275,18.4383 -5.16154803,5.56036 -9.474359,10.2344 -9.584025,10.38674 -0.168351,0.23386 0.06073,0.61613 1.471504,2.45556 0.918993,1.19821 1.98907797,2.60999 2.37796697,3.13729 l 0.707072,0.95871 1.46634903,0.005 1.466349,0.005 v 2.011 2.01099 h -5.027545 -5.027483 v -2.01099 -2.011 h 1.005497 c 0.553023,0 1.005496,-0.0422 1.005496,-0.0938 0,-0.0516 -0.803244,-1.14505 -1.784988,-2.42995 l -1.784995,-2.33617 h -3.158702 c -1.880407,0 -3.158703,0.0644 -3.158703,0.159 0,0.76585 -0.585875,4.26555 -0.927239,5.53882 -0.78145,2.91476 -2.74858,6.49341 -5.009419,9.11325 -1.193546,1.38307 -3.731603,3.46077 -5.528945,4.5261 -2.44418,1.44871 -4.393643,2.21099 -7.174922,2.8055 -2.027758,0.43345 -6.826173,0.56934 -8.759255,0.24806 z m 6.032979,-3.79472 c 3.054675,-0.34533 6.185318,-1.47246 8.682477,-3.12596 1.592765,-1.05466 4.078125,-3.47058 5.110212,-4.96745 1.955617,-2.8363 3.155491,-6.10431 3.471547,-9.4552 l 0.114595,-1.21498 -11.454531,-0.002 c -6.299992,-10e-4 -11.624208,-0.0478 -11.831592,-0.10334 -0.487602,-0.13067 -0.493746,-0.68396 -0.01797,-1.61877 0.197499,-0.38805 1.769132,-3.19415 3.49252,-6.23578 4.305879,-7.5995 6.077826,-10.8229 5.995013,-10.90571 -0.0386,-0.0386 -0.667377,-0.22907 -1.397272,-0.42325 -1.694149,-0.45073 -5.183074,-0.60948 -7.136248,-0.32472 -2.7087,0.39492 -5.623625,1.53346 -8.100203,3.16387 -1.450123,0.95466 -4.071133,3.45766 -5.029432,4.80298 -5.474507,7.68547 -4.310476,18.87286 2.632534,25.30102 4.178943,3.86906 9.855381,5.74412 15.468353,5.10957 z m 76.548235,0.0379 0.63326,-0.11603 -7.199516,-9.58055 c -5.782024,-7.69426 -7.144009,-9.60239 -6.917607,-9.6915 0.155049,-0.061 3.600046,-1.30718 7.655553,-2.76924 4.0555,-1.46206 10.27701,-3.70709 13.82557,-4.98898 3.54856,-1.28188 6.5502,-2.36208 6.6703,-2.40045 0.32121,-0.10263 -1.19814,-2.18081 -2.5897,-3.54224 -3.72503,-3.64434 -8.21985,-5.48455 -13.40139,-5.48661 -7.661591,-0.003 -14.67295,4.37131 -17.840445,11.13056 -4.939526,10.54067 0.651113,23.12497 11.827416,26.62301 2.350269,0.73561 5.737119,1.11509 7.336559,0.82203 z m -59.538586,-22.54529 c 0,-0.652 -0.617515,-2.85594 -1.176231,-4.19804 -0.637512,-1.53137 -2.468196,-4.33395 -3.753676,-5.74647 -1.178079,-1.2945 -2.776971,-2.57538 -4.052067,-3.24612 -0.929719,-0.48906 -0.989749,-0.49961 -1.201234,-0.21121 -0.468167,0.63845 -7.748146,13.41759 -7.748146,13.60095 0,0.14325 2.312188,0.19304 8.965677,0.19304 h 8.965677 z m 8.881345,0.0989 c -2.97e-4,-0.0691 -1.39594,-3.8586 -3.101426,-8.42104 -1.705484,-4.56244 -4.061874,-10.87792 -5.23642,-14.03441 -1.174543,-3.15648 -2.173241,-5.73797 -2.219326,-5.73663 -0.115141,0.003 -6.201732,10.63511 -6.19581,10.82255 0.0026,0.0827 0.436235,0.40815 0.963601,0.72319 2.67205,1.59619 5.487605,4.27369 7.249551,6.89408 1.805562,2.68526 2.776619,5.12383 3.749958,9.41709 l 0.104481,0.46085 h 2.342966 c 1.288631,0 2.342723,-0.0566 2.342425,-0.12568 z m 10.01161297,-8.21431 c 3.29619503,-3.5636 6.41132203,-6.9344 6.92250503,-7.49067 0.511184,-0.55627 2.429537,-2.63277 4.26301,-4.61443 1.833473,-1.98167 4.167778,-4.50742 5.187346,-5.61278 1.019569,-1.10535 2.287381,-2.46918 2.817361,-3.03072 0.529981,-0.56154 0.963601,-1.07113 0.963601,-1.13243 0,-0.0613 -8.333052,-0.11145 -18.517894,-0.11145 -10.184842,0 -18.517894,0.0625 -18.517894,0.13898 0,0.11225 9.771806,26.43559 10.414517,28.05468 0.100153,0.2523 0.247855,0.41808 0.328231,0.36841 0.08037,-0.0497 2.843023,-3.00599 6.13921697,-6.56959 z M 82.297192,154.13977 c -1.04405,-0.18415 -2.10921,-0.75741 -2.92719,-1.57539 -0.57668,-0.57668 -1.43896,-2.18907 -1.43896,-2.69074 0,-0.24208 -0.13406,-0.26264 -1.03234,-0.15839 -0.89485,0.10386 -1.12362,0.20753 -1.71772,0.77842 -1.44328,1.38688 -3.57379,2.08868 -5.88045,1.93705 -3.6813,-0.242 -5.90205,-1.48433 -6.22121,-3.48028 -0.0946,-0.59134 -0.14717,-0.63513 -1.11504,-0.92818 -4.65299,-1.40881 -6.22317,-6.31149 -2.98997,-9.33577 1.54182,-1.44219 3.35938,-2.12725 5.6339,-2.12346 1.40387,0.002 2.51778,0.25447 3.94618,0.89321 0.19162,0.0857 0.43475,-0.15912 0.93086,-0.93729 1.88085,-2.95022 5.32047,-4.39391 8.49719,-3.56648 3.57145,0.93024 5.86401,3.87535 6.23015,8.00347 l 0.11519,1.29876 h 0.57762 c 0.76955,0 1.63186,0.37639 1.97511,0.86211 0.15344,0.21712 0.40019,0.80953 0.54834,1.31647 0.31654,1.08311 1.39677,2.28717 1.8693,2.08357 1.67961,-0.72373 2.53742,-0.69603 3.45731,0.11165 0.7461,0.65508 1.00448,1.42447 0.77035,2.29394 -0.35155,1.30558 -1.51149,1.98448 -3.04417,1.78173 l -0.73602,-0.0974 -0.46533,0.84221 c -0.58542,1.05954 -1.59994,1.9359 -2.73099,2.35908 -1.06397,0.39808 -3.01346,0.55015 -4.25211,0.33167 z m 23.863968,-1.15997 c -1.37864,-0.28103 -2.46887,-1.27364 -3.08284,-2.80681 l -0.21811,-0.54464 h -3.645548 -3.64554 l -0.10382,-0.51912 c -0.0571,-0.28552 -0.0584,-0.70028 -0.003,-0.92171 0.0942,-0.37538 0.17757,-0.40258 1.23377,-0.40258 h 1.13272 l 0.11564,-3.47735 c 0.0636,-1.91253 0.19214,-3.72122 0.28566,-4.01929 0.20827,-0.66379 1.25765,-1.59084 2.110738,-1.86468 0.34794,-0.11169 1.73866,-0.24924 3.09049,-0.30568 l 2.45787,-0.10261 0.0903,-0.51974 c 0.0497,-0.28586 0.1407,-1.68863 0.2023,-3.11727 0.12304,-2.85361 0.31486,-3.59687 0.99503,-3.85547 0.27118,-0.1031 4.00995,-0.16652 9.81708,-0.16652 10.08236,0 10.26853,0.0149 10.71945,0.85742 0.12091,0.22593 0.26788,1.658 0.35832,3.49153 0.0843,1.70966 0.18627,3.20787 0.22656,3.32934 0.0587,0.17704 0.97962,0.21204 4.64075,0.17642 4.93451,-0.048 5.32474,0.008 6.30506,0.90949 0.92729,0.85246 1.0199,1.36709 1.02389,5.68981 l 0.004,3.98009 h -2.84679 -2.84682 l -0.59743,1.18637 c -0.69041,1.37096 -1.76791,2.61817 -2.54357,2.94415 -1.16071,0.48781 -3.23378,0.11578 -4.17955,-0.75007 -0.64806,-0.5933 -1.18487,-1.61241 -1.33114,-2.52716 l -0.10965,-0.68571 h -7.26843 c -6.80998,0 -7.26853,0.0185 -7.27008,0.29327 -0.002,0.43688 -0.72114,1.89435 -1.23314,2.50069 -0.83248,0.98589 -2.49411,1.51117 -3.88406,1.22783 z"
           id="path882" />
        <g
           aria-label="Verkehrswende Jetzt!"
           id="text2656"
           style="font-size:10.5833px;line-height:1.25;stroke-width:0.264583">
          <path
             d="m -57.536007,176.88307 2.997238,-10.95543 h 4.051438 l -5.064298,15.04821 h -3.968756 l -5.022958,-15.04821 h 4.020433 z"
             style="font-weight:900;font-size:21.1667px;font-family:Roboto;-inkscape-font-specification:'Roboto, Heavy';fill:#000000"
             id="path4804" />
          <path
             d="m -44.596208,181.18255 q -2.57349,0 -4.165127,-1.52962 -1.591637,-1.53996 -1.591637,-3.99977 v -0.28938 q 0,-1.71566 0.630454,-3.02825 0.640789,-1.31258 1.860354,-2.02572 1.219566,-0.72347 2.893885,-0.72347 2.356449,0 3.720709,1.46761 1.36426,1.45728 1.36426,4.07211 v 1.35393 h -6.924653 q 0.186036,0.94051 0.816489,1.47795 0.630454,0.53743 1.632978,0.53743 1.653648,0 2.583826,-1.15755 l 1.591636,1.88102 q -0.651124,0.89918 -1.850019,1.43661 -1.18856,0.5271 -2.563155,0.5271 z m -0.392741,-8.90903 q -1.529625,0 -1.819014,2.02572 h 3.514003 v -0.26872 q 0.02067,-0.83716 -0.423747,-1.29191 -0.444418,-0.46509 -1.271242,-0.46509 z"
             style="font-weight:900;font-size:21.1667px;font-family:Roboto;-inkscape-font-specification:'Roboto, Heavy';fill:#000000"
             id="path4806" />
          <path
             d="m -31.71842,172.94531 -1.147219,-0.0827 q -1.643313,0 -2.108402,1.03353 v 7.07969 h -3.482997 v -11.1828 h 3.265956 l 0.113688,1.4366 q 0.878501,-1.64331 2.449467,-1.64331 0.558106,0 0.971518,0.12403 z"
             style="font-weight:900;font-size:21.1667px;font-family:Roboto;-inkscape-font-specification:'Roboto, Heavy';fill:#000000"
             id="path4808" />
          <path
             d="m -25.971994,176.81072 -0.981854,0.98185 v 3.18328 h -3.482997 v -15.88537 h 3.482997 v 8.43361 l 0.351401,-0.46509 2.625167,-3.26595 h 4.175462 l -3.91708,4.59921 4.175462,6.58359 h -3.989426 z"
             style="font-weight:900;font-size:21.1667px;font-family:Roboto;-inkscape-font-specification:'Roboto, Heavy';fill:#000000"
             id="path4810" />
          <path
             d="m -13.683317,181.18255 q -2.57349,0 -4.165127,-1.52962 -1.591636,-1.53996 -1.591636,-3.99977 v -0.28938 q 0,-1.71566 0.630453,-3.02825 0.640789,-1.31258 1.860355,-2.02572 1.219565,-0.72347 2.893885,-0.72347 2.356449,0 3.720709,1.46761 1.3642596,1.45728 1.3642596,4.07211 v 1.35393 h -6.9246526 q 0.186035,0.94051 0.816489,1.47795 0.630453,0.53743 1.632977,0.53743 1.653649,0 2.583826,-1.15755 l 1.5916368,1.88102 q -0.6511241,0.89918 -1.8500188,1.43661 -1.18856,0.5271 -2.563156,0.5271 z m -0.392741,-8.90903 q -1.529625,0 -1.819013,2.02572 h 3.514003 v -0.26872 q 0.02067,-0.83716 -0.423748,-1.29191 -0.444418,-0.46509 -1.271242,-0.46509 z"
             style="font-weight:900;font-size:21.1667px;font-family:Roboto;-inkscape-font-specification:'Roboto, Heavy';fill:#000000"
             id="path4812" />
          <path
             d="m -4.1645006,170.99194 q 1.1162127,-1.4056 2.8525436,-1.4056 1.85001925,0 2.7905318,1.09554 0.9405126,1.09555 0.9611832,3.23495 v 7.05902 h -3.4933324 v -6.97633 q 0,-0.88884 -0.3617356,-1.30225 -0.3617356,-0.42375 -1.229901,-0.42375 -1.0748715,0 -1.5192896,0.68213 v 8.0202 h -3.4829971 v -15.87503 h 3.4829971 z"
             style="font-weight:900;font-size:21.1667px;font-family:Roboto;-inkscape-font-specification:'Roboto, Heavy';fill:#000000"
             id="path4814" />
          <path
             d="m 11.142082,172.94531 -1.1472188,-0.0827 q -1.6433132,0 -2.1084018,1.03353 v 7.07969 H 4.4034643 v -11.1828 H 7.66942 l 0.1136884,1.4366 q 0.8785007,-1.64331 2.4494666,-1.64331 0.558107,0 0.971519,0.12403 z"
             style="font-weight:900;font-size:21.1667px;font-family:Roboto;-inkscape-font-specification:'Roboto, Heavy';fill:#000000"
             id="path4816" />
          <path
             d="m 18.25277,177.83391 q 0,-0.44441 -0.465088,-0.71313 -0.465089,-0.26872 -1.767337,-0.55811 -1.302248,-0.28939 -2.149743,-0.75448 -0.847495,-0.47542 -1.291913,-1.14721 -0.444418,-0.6718 -0.444418,-1.53996 0,-1.53997 1.271242,-2.53215 1.271242,-1.00253 3.327968,-1.00253 2.211754,0 3.555344,1.00253 1.343589,1.00252 1.343589,2.6355 h -3.493332 q 0,-1.34359 -1.415937,-1.34359 -0.547771,0 -0.919842,0.31006 -0.372071,0.29972 -0.372071,0.75447 0,0.46509 0.454754,0.75448 0.454753,0.28939 1.446942,0.47543 1.002525,0.18603 1.757002,0.44441 2.521814,0.86817 2.521814,3.11093 0,1.52963 -1.36426,2.49081 -1.353925,0.96118 -3.514003,0.96118 -1.436607,0 -2.563155,-0.51676 -1.126548,-0.51677 -1.757002,-1.4056 -0.630453,-0.88884 -0.630453,-1.87069 h 3.25562 q 0.02067,0.77514 0.516765,1.13688 0.496095,0.3514 1.271242,0.3514 0.713136,0 1.064537,-0.28939 0.361735,-0.28939 0.361735,-0.75448 z"
             style="font-weight:900;font-size:21.1667px;font-family:Roboto;-inkscape-font-specification:'Roboto, Heavy';fill:#000000"
             id="path4818" />
          <path
             d="m 32.897897,176.38697 1.126549,-6.59392 h 3.338302 l -2.635502,11.1828 h -2.945561 l -1.850019,-6.63527 -1.860355,6.63527 H 25.12575 l -2.635503,-11.1828 h 3.338303 l 1.105878,6.74895 1.777672,-6.74895 h 2.428796 z"
             style="font-weight:900;font-size:21.1667px;font-family:Roboto;-inkscape-font-specification:'Roboto, Heavy';fill:#000000"
             id="path4820" />
          <path
             d="m 44.018679,181.18255 q -2.57349,0 -4.165127,-1.52962 -1.591636,-1.53996 -1.591636,-3.99977 v -0.28938 q 0,-1.71566 0.630453,-3.02825 0.640789,-1.31258 1.860355,-2.02572 1.219565,-0.72347 2.893884,-0.72347 2.356449,0 3.720709,1.46761 1.36426,1.45728 1.36426,4.07211 v 1.35393 h -6.924653 q 0.186036,0.94051 0.816489,1.47795 0.630454,0.53743 1.632978,0.53743 1.653649,0 2.583826,-1.15755 l 1.591637,1.88102 q -0.651124,0.89918 -1.85002,1.43661 -1.188559,0.5271 -2.563155,0.5271 z m -0.392741,-8.90903 q -1.529625,0 -1.819014,2.02572 h 3.514003 v -0.26872 q 0.02067,-0.83716 -0.423747,-1.29191 -0.444418,-0.46509 -1.271242,-0.46509 z"
             style="font-weight:900;font-size:21.1667px;font-family:Roboto;-inkscape-font-specification:'Roboto, Heavy';fill:#000000"
             id="path4822" />
          <path
             d="m 53.330789,169.79305 0.113689,1.31258 q 1.157553,-1.51929 3.193608,-1.51929 1.746666,0 2.604496,1.04387 0.868166,1.04386 0.899172,3.14193 v 7.20371 h -3.493333 v -7.05902 q 0,-0.84749 -0.341065,-1.24023 -0.341065,-0.40308 -1.240236,-0.40308 -1.023195,0 -1.519289,0.80615 v 7.89618 h -3.482998 v -11.1828 z"
             style="font-weight:900;font-size:21.1667px;font-family:Roboto;-inkscape-font-specification:'Roboto, Heavy';fill:#000000"
             id="path4824" />
          <path
             d="m 61.630034,175.30176 q 0,-2.65617 1.147218,-4.18579 1.147219,-1.52963 3.203944,-1.52963 1.498619,0 2.521814,1.17823 v -5.66375 h 3.493333 v 15.87503 h -3.131597 l -0.1757,-1.1989 q -1.074872,1.4056 -2.72852,1.4056 -1.994714,0 -3.162603,-1.52962 -1.167889,-1.52963 -1.167889,-4.35117 z m 3.482997,0.21705 q 0,2.97656 1.736331,2.97656 1.157554,0 1.653648,-0.97152 v -4.25814 q -0.475424,-0.99219 -1.632978,-0.99219 -1.612307,0 -1.746666,2.6045 z"
             style="font-weight:900;font-size:21.1667px;font-family:Roboto;-inkscape-font-specification:'Roboto, Heavy';fill:#000000"
             id="path4826" />
          <path
             d="m 79.38608,181.18255 q -2.57349,0 -4.165127,-1.52962 -1.591636,-1.53996 -1.591636,-3.99977 v -0.28938 q 0,-1.71566 0.630453,-3.02825 0.640789,-1.31258 1.860355,-2.02572 1.219565,-0.72347 2.893885,-0.72347 2.356449,0 3.720709,1.46761 1.36426,1.45728 1.36426,4.07211 v 1.35393 h -6.924653 q 0.186035,0.94051 0.816489,1.47795 0.630453,0.53743 1.632977,0.53743 1.653649,0 2.583826,-1.15755 l 1.591637,1.88102 q -0.651124,0.89918 -1.850019,1.43661 -1.18856,0.5271 -2.563156,0.5271 z m -0.392741,-8.90903 q -1.529625,0 -1.819013,2.02572 h 3.514003 v -0.26872 q 0.02067,-0.83716 -0.423748,-1.29191 -0.444418,-0.46509 -1.271242,-0.46509 z"
             style="font-weight:900;font-size:21.1667px;font-family:Roboto;-inkscape-font-specification:'Roboto, Heavy';fill:#000000"
             id="path4828" />
          <path
             d="m 96.925098,165.92764 h 3.617352 v 10.32497 q 0,1.43661 -0.67179,2.56316 -0.66146,1.12655 -1.860355,1.74666 -1.18856,0.62012 -2.656173,0.62012 -2.459802,0 -3.824062,-1.24023 -1.36426,-1.24024 -1.36426,-3.51401 h 3.638027 q 0,1.03353 0.3514,1.49862 0.361736,0.46509 1.198895,0.46509 0.754477,0 1.157554,-0.55811 0.413412,-0.56844 0.413412,-1.5813 z"
             style="font-weight:900;font-size:21.1667px;font-family:Roboto;-inkscape-font-specification:'Roboto, Heavy';fill:#000000"
             id="path4830" />
          <path
             d="m 108.07689,181.18255 q -2.57349,0 -4.16513,-1.52962 -1.59163,-1.53996 -1.59163,-3.99977 v -0.28938 q 0,-1.71566 0.63045,-3.02825 0.64079,-1.31258 1.86036,-2.02572 1.21956,-0.72347 2.89388,-0.72347 2.35645,0 3.72071,1.46761 1.36426,1.45728 1.36426,4.07211 v 1.35393 h -6.92465 q 0.18603,0.94051 0.81649,1.47795 0.63045,0.53743 1.63297,0.53743 1.65365,0 2.58383,-1.15755 l 1.59164,1.88102 q -0.65113,0.89918 -1.85002,1.43661 -1.18856,0.5271 -2.56316,0.5271 z m -0.39274,-8.90903 q -1.52962,0 -1.81901,2.02572 h 3.514 v -0.26872 q 0.0207,-0.83716 -0.42375,-1.29191 -0.44442,-0.46509 -1.27124,-0.46509 z"
             style="font-weight:900;font-size:21.1667px;font-family:Roboto;-inkscape-font-specification:'Roboto, Heavy';fill:#000000"
             id="path4832" />
          <path
             d="m 118.24683,167.01285 v 2.7802 h 1.83969 v 2.41846 h -1.83969 v 5.11597 q 0,0.63046 0.22738,0.8785 0.22737,0.24805 0.89917,0.24805 0.51676,0 0.86817,-0.062 v 2.49081 q -0.94052,0.29972 -1.96371,0.29972 -1.79835,0 -2.65618,-0.84749 -0.85783,-0.8475 -0.85783,-2.57349 v -5.55006 h -1.42627 v -2.41846 h 1.42627 v -2.7802 z"
             style="font-weight:900;font-size:21.1667px;font-family:Roboto;-inkscape-font-specification:'Roboto, Heavy';fill:#000000"
             id="path4834" />
          <path
             d="m 125.56422,178.28867 h 5.09531 v 2.68718 h -9.49814 v -1.94304 l 4.96094,-6.55258 h -4.7439 v -2.68718 h 9.16741 v 1.88102 z"
             style="font-weight:900;font-size:21.1667px;font-family:Roboto;-inkscape-font-specification:'Roboto, Heavy';fill:#000000"
             id="path4836" />
          <path
             d="m 136.40595,167.01285 v 2.7802 h 1.83968 v 2.41846 h -1.83968 v 5.11597 q 0,0.63046 0.22738,0.8785 0.22737,0.24805 0.89917,0.24805 0.51676,0 0.86816,-0.062 v 2.49081 q -0.94051,0.29972 -1.9637,0.29972 -1.79835,0 -2.65618,-0.84749 -0.85783,-0.8475 -0.85783,-2.57349 v -5.55006 h -1.42627 v -2.41846 h 1.42627 v -2.7802 z"
             style="font-weight:900;font-size:21.1667px;font-family:Roboto;-inkscape-font-specification:'Roboto, Heavy';fill:#000000"
             id="path4838" />
          <path
             d="m 143.07222,176.21127 h -2.82154 l -0.44442,-10.28363 h 3.71038 z m -3.36931,3.20394 q 0,-0.76481 0.54777,-1.25057 0.55811,-0.49609 1.38493,-0.49609 0.82683,0 1.3746,0.49609 0.5581,0.48576 0.5581,1.25057 0,0.76482 -0.5581,1.26091 -0.54777,0.48576 -1.3746,0.48576 -0.82682,0 -1.38493,-0.48576 -0.54777,-0.49609 -0.54777,-1.26091 z"
             style="font-weight:900;font-size:21.1667px;font-family:Roboto;-inkscape-font-specification:'Roboto, Heavy';fill:#000000"
             id="path4840" />
        </g>
      </g>
    </g>
  </g>
</svg>
